{
  "images" : [
    {
      "filename" : "BackgroundGradient.pdf",
      "idiom" : "universal",
      "scale" : "1x"
    },
    {
      "appearances" : [
        {
          "appearance" : "luminosity",
          "value" : "dark"
        }
      ],
      "filename" : "BackgroundGradientLightMode.pdf",
      "idiom" : "universal",
      "scale" : "1x"
    },
    {
      "filename" : "BackgroundGradient-1.pdf",
      "idiom" : "universal",
      "scale" : "2x"
    },
    {
      "appearances" : [
        {
          "appearance" : "luminosity",
          "value" : "dark"
        }
      ],
      "filename" : "BackgroundGradientLightMode-1.pdf",
      "idiom" : "universal",
      "scale" : "2x"
    },
    {
      "filename" : "BackgroundGradient-2.pdf",
      "idiom" : "universal",
      "scale" : "3x"
    },
    {
      "appearances" : [
        {
          "appearance" : "luminosity",
          "value" : "dark"
        }
      ],
      "filename" : "BackgroundGradientLightMode-2.pdf",
      "idiom" : "universal",
      "scale" : "3x"
    }
  ],
  "info" : {
    "author" : "xcode",
    "version" : 1
  },
  "properties" : {
    "compression-type" : "lossless",
    "preserves-vector-representation" : true
  }
}
